R	220320092307Z	191216102316Z	CB150D3B9BFEFA96975326A56BA11F3B	unknown	/CN=server
R	220320093452Z	191216102325Z	3F9FF7ADC8913AD5038193CEA5D5AF71	unknown	/CN=client
R	220320102622Z	191216102731Z	D8A5DF31F8A65F2B0B1A89C12B0DA674	unknown	/CN=server
R	220320102741Z	191216103441Z	1C198C5FFFB567F64718632D02198C27	unknown	/CN=server
R	220320102908Z	191216103429Z	5006BAA60B95C8A6CEA908DD8C91BB4F	unknown	/CN=client
V	220320103510Z		9F62AE2725E034E6517F1442F391D7BF	unknown	/CN=server
V	220320103542Z		6CC7B9235591E4662F5EFAA1B10BF8AA	unknown	/CN=client
